{
  "name": "keystone",
  "description": "Role for configuration of OpenStack Keystone component for identity and access management",
  "json_class": "Chef::Role",
  
  "default_attributes": {
	"keystone" : {
		"user" : "xlab",
		"admin_token" : "ADMIN",
		"admin_pw" : "adminpw",
		"token_expiration_period" : 3600
	},
    "barbican" : {
        "pw" : "barbicanpw",
        "ip" : "172.16.95.137"
    }
  },
  
  "chef_type": "role",
  
  "run_list": [
	"recipe[keystone::default_modified]",
	"recipe[keystone::setup_mysql]",
	"recipe[keystone::initialize]"
  ]
}